{
  "apiVersion": "v1",
  "kind": "ChartRepoCreate",
  "metadata": {
    "name": "test",
    "namespace": "captain"
  },
  "spec": {
    "chartRepo": {
      "apiVersion": "app.alauda.io/v1alpha1",
      "kind": "ChartRepo",
      "metadata": {
        "name": "test",
        "namespace": "captain"
      },
      "spec": {
        "url": "https://kubernetes-charts.storage.googleapis.com",
        "secret": {
          "name": "test"
        }
      }
    },
    "secret": {
      "apiVersion": "v1",
      "data": {
        "password": "MndiNEUxaXlkUmo3",
        "username": "N0RPOVFvTHREeDFn"
      },
      "kind": "Secret",
      "metadata": {
        "name": "test",
        "namespace": "captain"
      },
      "type": "Opaque"
    }
  }
}